<svg height="512pt" viewBox="-4 0 512 512" width="512pt" xmlns="http://www.w3.org/2000/svg">
  <path d="M505 250v58c0 31-25 56-56 56H276c-10 0-17 8-17 18 0 9 8 15 17 15h41c9 0 17 8 17 17v42c0 31-25 56-56 56h-49c-31 0-56-25-56-56V309H56c-31 0-56-25-56-56v-49c0-31 25-56 56-56h168c10 0 17-8 17-18-1-9-8-15-17-15h-34c-9 0-17-8-17-17V56c0-31 25-56 56-56h49c31 0 56 25 56 56v139h115c31 0 56 25 56 55zm0 0" fill="#ffda44"/>
  <path d="M505 250v58c0 31-25 56-56 56H276c-10 0-17 8-17 18 0 9 8 15 17 15h41c9 0 17 8 17 17v42c0 31-25 56-56 56h-24V0h24c31 0 56 25 56 56v139h115c31 0 56 25 56 55zm0 0" fill="#ffcd00"/>
  <path d="M318 437a17 17 0 11-33 0 17 17 0 0133 0zm0 0" fill="#4895ff"/>
  <path d="M318 437c0 9-7 17-16 17v-34c9 0 16 8 16 17zm0 0" fill="#2682ff"/>
  <path d="M334 56v162c0 18-15 33-34 33H190c-9 0-17 8-17 17v41H56c-31 0-56-25-56-56v-49c0-31 25-56 56-56h168c10 0 17-8 17-18-1-9-8-15-17-15h-34c-9 0-17-8-17-17V56c0-31 25-56 56-56h49c31 0 56 25 56 56zm0 0" fill="#4895ff"/>
  <path d="M334 56v162c0 18-15 33-34 33h-46V0h24c31 0 56 25 56 56zm0 0" fill="#2682ff"/>
  <path d="M226 79a17 17 0 11-33 0 17 17 0 0133 0zm0 0" fill="#ffda44"/>
  <path d="M226 79c0 9-7 16-16 16V62c9 0 16 7 16 17zm0 0" fill="#ffcd00"/>
</svg>
